plic.vcd
$date
	Thu Jun 18 09:02:05 2026
$end
$version
	Icarus Verilog
$end
$timescale
	1ps
$end
$scope module tb_plic_simple $end
$var wire 1 ! pready $end
$var wire 32 " prdata [31:0] $end
$var wire 1 # cpu_irq $end
$var reg 1 $ gpio_irq $end
$var reg 32 % paddr [31:0] $end
$var reg 1 & pclk $end
$var reg 1 ' penable $end
$var reg 1 ( presetn $end
$var reg 1 ) psel $end
$var reg 32 * pwdata [31:0] $end
$var reg 1 + pwrite $end
$var reg 1 , timer_irq $end
$scope module DUT $end
$var wire 1 - apb_read $end
$var wire 1 . apb_write $end
$var wire 1 $ gpio_irq $end
$var wire 32 / paddr [31:0] $end
$var wire 1 & pclk $end
$var wire 1 ' penable $end
$var wire 1 ! pready $end
$var wire 1 ( presetn $end
$var wire 1 ) psel $end
$var wire 32 0 pwdata [31:0] $end
$var wire 1 + pwrite $end
$var wire 1 , timer_irq $end
$var wire 1 # cpu_irq $end
$var reg 32 1 enable_reg [31:0] $end
$var reg 32 2 pending_reg [31:0] $end
$var reg 32 3 prdata [31:0] $end
$upscope $end
$scope task apb_write $end
$var reg 32 4 addr [31:0] $end
$var reg 32 5 data [31:0] $end
$upscope $end
$upscope $end
$enddefinitions $end
$comment Show the parameter values. $end
$dumpall
$end
#0
$dumpvars
bx 5
bx 4
b0 3
b0 2
b0 1
b0 0
b0 /
0.
0-
0,
0+
b0 *
0)
0(
0'
0&
b0 %
0$
0#
b0 "
1!
$end
#5000
1&
#10000
0&
#15000
1&
#20000
0&
#25000
1&
#30000
0&
#35000
1&
#40000
0&
#45000
b1 5
b100 4
1(
1&
#50000
0&
#55000
b1 *
b1 0
b100 %
b100 /
1+
1)
1&
#60000
0&
#65000
1.
1'
1&
#70000
0&
#75000
b1 1
0.
0+
0'
0)
1&
#80000
0&
#85000
1#
b1 2
1,
1&
#90000
0&
#95000
0,
1&
#100000
0&
#105000
1&
#110000
0&
#115000
b0 %
b0 /
1+
1)
1&
b0 4
#120000
0&
#125000
1.
1'
1&
#130000
0&
#135000
0#
b0 2
0.
0+
0'
0)
1&
