soc_top.vcd
$date
	Fri Jun 19 05:35:41 2026
$end
$version
	Icarus Verilog
$end
$timescale
	1ps
$end
$scope module tb_soc_top $end
$var wire 1 ! uart_tx $end
$var wire 8 " gpio [7:0] $end
$var reg 1 # clk $end
$var reg 1 $ rst $end
$var reg 1 % uart_rx $end
$scope module DUT $end
$var wire 1 & apb_sel $end
$var wire 1 # clk $end
$var wire 1 ' ram_sel $end
$var wire 1 $ rst $end
$var wire 1 % uart_rx $end
$var wire 1 ! uart_tx $end
$var wire 32 ( ram_rdata [31:0] $end
$var wire 32 ) instr_rdata [31:0] $end
$var wire 32 * instr_addr [31:0] $end
$var wire 8 + gpio [7:0] $end
$var wire 1 , data_we $end
$var wire 32 - data_wdata [31:0] $end
$var wire 1 . data_re $end
$var wire 32 / data_rdata [31:0] $end
$var wire 32 0 data_addr [31:0] $end
$var wire 1 1 cpu_irq $end
$var wire 1 2 apb_pready $end
$var wire 32 3 apb_prdata [31:0] $end
$scope module apb $end
$var wire 1 4 gpio_irq $end
$var wire 1 5 gpio_pready $end
$var wire 1 # pclk $end
$var wire 1 & penable $end
$var wire 1 6 plic_pready $end
$var wire 1 7 presetn $end
$var wire 1 & psel $end
$var wire 1 8 spi_miso $end
$var wire 1 9 spi_pready $end
$var wire 1 : timer_pready $end
$var wire 1 ; uart_irq $end
$var wire 1 < timer_pwrite $end
$var wire 32 = timer_pwdata [31:0] $end
$var wire 1 > timer_psel $end
$var wire 32 ? timer_prdata [31:0] $end
$var wire 1 @ timer_penable $end
$var wire 32 A timer_paddr [31:0] $end
$var wire 1 B timer_irq $end
$var wire 1 C spi_sclk $end
$var wire 1 D spi_pwrite $end
$var wire 32 E spi_pwdata [31:0] $end
$var wire 1 F spi_psel $end
$var wire 32 G spi_prdata [31:0] $end
$var wire 1 H spi_penable $end
$var wire 32 I spi_paddr [31:0] $end
$var wire 1 J spi_mosi $end
$var wire 1 K spi_irq $end
$var wire 1 L spi_cs_n $end
$var wire 1 , pwrite $end
$var wire 32 M pwdata [31:0] $end
$var wire 1 2 pready $end
$var wire 32 N prdata [31:0] $end
$var wire 1 O plic_pwrite $end
$var wire 32 P plic_pwdata [31:0] $end
$var wire 1 Q plic_psel $end
$var wire 32 R plic_prdata [31:0] $end
$var wire 1 S plic_penable $end
$var wire 32 T plic_paddr [31:0] $end
$var wire 32 U paddr [31:0] $end
$var wire 1 V gpio_pwrite $end
$var wire 32 W gpio_pwdata [31:0] $end
$var wire 1 X gpio_psel $end
$var wire 32 Y gpio_prdata [31:0] $end
$var wire 1 Z gpio_penable $end
$var wire 32 [ gpio_paddr [31:0] $end
$var wire 8 \ gpio [7:0] $end
$var wire 1 1 cpu_irq $end
$scope module gpio_inst $end
$var wire 1 ] apb_read $end
$var wire 1 ^ apb_write $end
$var wire 1 # pclk $end
$var wire 1 5 pready $end
$var wire 1 7 presetn $end
$var wire 1 V pwrite $end
$var wire 32 _ pwdata [31:0] $end
$var wire 1 X psel $end
$var wire 1 Z penable $end
$var wire 32 ` paddr [31:0] $end
$var wire 8 a gpio [7:0] $end
$var reg 8 b data_reg [7:0] $end
$var reg 8 c dir_reg [7:0] $end
$var reg 32 d prdata [31:0] $end
$scope begin GPIO_BUFFER[0] $end
$var parameter 2 e i $end
$upscope $end
$scope begin GPIO_BUFFER[1] $end
$var parameter 2 f i $end
$upscope $end
$scope begin GPIO_BUFFER[2] $end
$var parameter 3 g i $end
$upscope $end
$scope begin GPIO_BUFFER[3] $end
$var parameter 3 h i $end
$upscope $end
$scope begin GPIO_BUFFER[4] $end
$var parameter 4 i i $end
$upscope $end
$scope begin GPIO_BUFFER[5] $end
$var parameter 4 j i $end
$upscope $end
$scope begin GPIO_BUFFER[6] $end
$var parameter 4 k i $end
$upscope $end
$scope begin GPIO_BUFFER[7] $end
$var parameter 4 l i $end
$upscope $end
$upscope $end
$scope module interconnect $end
$var wire 32 m gpio_paddr [31:0] $end
$var wire 1 Z gpio_penable $end
$var wire 32 n gpio_prdata [31:0] $end
$var wire 1 5 gpio_pready $end
$var wire 1 X gpio_psel $end
$var wire 32 o gpio_pwdata [31:0] $end
$var wire 1 V gpio_pwrite $end
$var wire 1 & penable $end
$var wire 32 p plic_paddr [31:0] $end
$var wire 1 S plic_penable $end
$var wire 1 6 plic_pready $end
$var wire 1 Q plic_psel $end
$var wire 32 q plic_pwdata [31:0] $end
$var wire 1 O plic_pwrite $end
$var wire 1 & psel $end
$var wire 32 r spi_paddr [31:0] $end
$var wire 1 H spi_penable $end
$var wire 1 9 spi_pready $end
$var wire 1 F spi_psel $end
$var wire 32 s spi_pwdata [31:0] $end
$var wire 1 D spi_pwrite $end
$var wire 32 t timer_paddr [31:0] $end
$var wire 1 @ timer_penable $end
$var wire 1 : timer_pready $end
$var wire 1 > timer_psel $end
$var wire 32 u timer_pwdata [31:0] $end
$var wire 1 < timer_pwrite $end
$var wire 32 v timer_prdata [31:0] $end
$var wire 32 w spi_prdata [31:0] $end
$var wire 1 x sel_timer $end
$var wire 1 y sel_spi $end
$var wire 1 z sel_plic $end
$var wire 1 { sel_gpio $end
$var wire 1 , pwrite $end
$var wire 32 | pwdata [31:0] $end
$var wire 1 2 pready $end
$var wire 32 } prdata [31:0] $end
$var wire 32 ~ plic_prdata [31:0] $end
$var wire 32 !" paddr [31:0] $end
$upscope $end
$scope module plic_inst $end
$var wire 1 "" apb_read $end
$var wire 1 #" apb_write $end
$var wire 1 4 gpio_irq $end
$var wire 32 $" paddr [31:0] $end
$var wire 1 # pclk $end
$var wire 1 S penable $end
$var wire 1 6 pready $end
$var wire 1 7 presetn $end
$var wire 1 Q psel $end
$var wire 32 %" pwdata [31:0] $end
$var wire 1 O pwrite $end
$var wire 1 ; uart_irq $end
$var wire 1 B timer_irq $end
$var wire 1 K spi_irq $end
$var wire 1 1 cpu_irq $end
$var reg 4 &" enable_reg [3:0] $end
$var reg 4 '" pending_reg [3:0] $end
$var reg 32 (" prdata [31:0] $end
$upscope $end
$scope module spi_inst $end
$var wire 1 )" apb_read $end
$var wire 1 *" apb_write $end
$var wire 1 8 miso $end
$var wire 32 +" paddr [31:0] $end
$var wire 1 # pclk $end
$var wire 1 H penable $end
$var wire 1 9 pready $end
$var wire 1 7 presetn $end
$var wire 1 F psel $end
$var wire 32 ," pwdata [31:0] $end
$var wire 1 D pwrite $end
$var wire 1 J mosi $end
$var wire 1 K irq $end
$var reg 4 -" bit_count [3:0] $end
$var reg 1 ." busy $end
$var reg 32 /" control_reg [31:0] $end
$var reg 1 L cs_n $end
$var reg 32 0" prdata [31:0] $end
$var reg 8 1" rxdata_reg [7:0] $end
$var reg 1 C sclk $end
$var reg 8 2" shift_rx [7:0] $end
$var reg 8 3" shift_tx [7:0] $end
$var reg 32 4" status_reg [31:0] $end
$var reg 8 5" txdata_reg [7:0] $end
$upscope $end
$scope module timer_inst $end
$var wire 1 6" apb_read $end
$var wire 1 7" apb_write $end
$var wire 32 8" paddr [31:0] $end
$var wire 1 # pclk $end
$var wire 1 @ penable $end
$var wire 1 : pready $end
$var wire 1 7 presetn $end
$var wire 1 > psel $end
$var wire 32 9" pwdata [31:0] $end
$var wire 1 < pwrite $end
$var wire 1 B irq $end
$var reg 32 :" control_reg [31:0] $end
$var reg 32 ;" irq_status_reg [31:0] $end
$var reg 32 <" load_reg [31:0] $end
$var reg 32 =" prdata [31:0] $end
$var reg 32 >" value_reg [31:0] $end
$upscope $end
$upscope $end
$scope module cpu $end
$var wire 1 # clk $end
$var wire 32 ?" data_addr [31:0] $end
$var wire 32 @" data_rdata [31:0] $end
$var wire 32 A" ex_jalr_target [31:0] $end
$var wire 1 B" ex_redirect $end
$var wire 1 C" flush $end
$var wire 32 D" instr [31:0] $end
$var wire 32 E" instr_addr [31:0] $end
$var wire 1 F" load_use_hazard $end
$var wire 1 G" reg_write $end
$var wire 1 $ rst $end
$var wire 1 H" stall $end
$var wire 1 I" zero $end
$var wire 32 J" wb_data [31:0] $end
$var wire 32 K" pc_plus4 [31:0] $end
$var wire 32 L" pc_out [31:0] $end
$var wire 32 M" pc_next [31:0] $end
$var wire 32 N" instr_rdata [31:0] $end
$var wire 5 O" id_rs2 [4:0] $end
$var wire 5 P" id_rs1 [4:0] $end
$var wire 1 Q" id_reg_write $end
$var wire 5 R" id_rd_addr [4:0] $end
$var wire 32 S" id_rd2_raw [31:0] $end
$var wire 32 T" id_rd2 [31:0] $end
$var wire 32 U" id_rd1_raw [31:0] $end
$var wire 32 V" id_rd1 [31:0] $end
$var wire 7 W" id_opcode [6:0] $end
$var wire 1 X" id_mem_write $end
$var wire 1 Y" id_mem_to_reg $end
$var wire 2 Z" id_mem_size [1:0] $end
$var wire 1 [" id_mem_signed $end
$var wire 1 \" id_mem_read $end
$var wire 1 ]" id_mac_en $end
$var wire 1 ^" id_mac_clr $end
$var wire 1 _" id_lui $end
$var wire 1 `" id_jump $end
$var wire 1 a" id_jalr $end
$var wire 32 b" id_imm [31:0] $end
$var wire 7 c" id_funct7 [6:0] $end
$var wire 3 d" id_funct3 [2:0] $end
$var wire 1 e" id_branch $end
$var wire 1 f" id_auipc $end
$var wire 1 g" id_alu_src $end
$var wire 2 h" id_alu_op [1:0] $end
$var wire 5 i" id_alu_ctrl [4:0] $end
$var wire 32 j" ex_rs2_data [31:0] $end
$var wire 32 k" ex_rs1_data [31:0] $end
$var wire 32 l" ex_redirect_target [31:0] $end
$var wire 32 m" ex_forward_data [31:0] $end
$var wire 32 n" ex_branch_target [31:0] $end
$var wire 32 o" ex_alu_b [31:0] $end
$var wire 32 p" ex_alu_a [31:0] $end
$var wire 1 , data_we $end
$var wire 32 q" data_wdata [31:0] $end
$var wire 1 . data_re $end
$var wire 32 r" alu_result [31:0] $end
$var wire 32 s" acc [31:0] $end
$var parameter 32 t" NOP $end
$var parameter 7 u" OP_AUIPC $end
$var parameter 7 v" OP_BRANCH $end
$var parameter 7 w" OP_CUSTOM $end
$var parameter 7 x" OP_I_ALU $end
$var parameter 7 y" OP_JAL $end
$var parameter 7 z" OP_JALR $end
$var parameter 7 {" OP_LOAD $end
$var parameter 7 |" OP_LUI $end
$var parameter 7 }" OP_R $end
$var parameter 7 ~" OP_STORE $end
$var reg 1 !# branch_taken $end
$var reg 32 "# ex_mem_alu_result [31:0] $end
$var reg 32 ## ex_mem_imm [31:0] $end
$var reg 1 $# ex_mem_jalr $end
$var reg 1 %# ex_mem_jump $end
$var reg 1 &# ex_mem_lui $end
$var reg 1 . ex_mem_mem_read $end
$var reg 1 '# ex_mem_mem_signed $end
$var reg 2 (# ex_mem_mem_size [1:0] $end
$var reg 1 )# ex_mem_mem_to_reg $end
$var reg 1 , ex_mem_mem_write $end
$var reg 32 *# ex_mem_pc_plus4 [31:0] $end
$var reg 5 +# ex_mem_rd [4:0] $end
$var reg 1 ,# ex_mem_reg_write $end
$var reg 32 -# ex_mem_store_data [31:0] $end
$var reg 2 .# forward_a [1:0] $end
$var reg 2 /# forward_b [1:0] $end
$var reg 5 0# id_ex_alu_ctrl [4:0] $end
$var reg 1 1# id_ex_alu_src $end
$var reg 1 2# id_ex_auipc $end
$var reg 1 3# id_ex_branch $end
$var reg 3 4# id_ex_funct3 [2:0] $end
$var reg 32 5# id_ex_imm [31:0] $end
$var reg 1 6# id_ex_jalr $end
$var reg 1 7# id_ex_jump $end
$var reg 1 8# id_ex_lui $end
$var reg 1 9# id_ex_mac_clr $end
$var reg 1 :# id_ex_mac_en $end
$var reg 1 ;# id_ex_mem_read $end
$var reg 1 <# id_ex_mem_signed $end
$var reg 2 =# id_ex_mem_size [1:0] $end
$var reg 1 ># id_ex_mem_to_reg $end
$var reg 1 ?# id_ex_mem_write $end
$var reg 32 @# id_ex_pc [31:0] $end
$var reg 32 A# id_ex_pc_plus4 [31:0] $end
$var reg 5 B# id_ex_rd [4:0] $end
$var reg 32 C# id_ex_rd1 [31:0] $end
$var reg 32 D# id_ex_rd2 [31:0] $end
$var reg 1 E# id_ex_reg_write $end
$var reg 5 F# id_ex_rs1 [4:0] $end
$var reg 5 G# id_ex_rs2 [4:0] $end
$var reg 32 H# if_id_instr [31:0] $end
$var reg 32 I# if_id_pc [31:0] $end
$var reg 32 J# if_id_pc_plus4 [31:0] $end
$var reg 32 K# mem_wb_alu_result [31:0] $end
$var reg 32 L# mem_wb_imm [31:0] $end
$var reg 1 M# mem_wb_jalr $end
$var reg 1 N# mem_wb_jump $end
$var reg 1 O# mem_wb_lui $end
$var reg 32 P# mem_wb_mem_rd [31:0] $end
$var reg 1 Q# mem_wb_mem_to_reg $end
$var reg 32 R# mem_wb_pc_plus4 [31:0] $end
$var reg 5 S# mem_wb_rd [4:0] $end
$var reg 1 T# mem_wb_reg_write $end
$scope function uses_rs1 $end
$var reg 3 U# f3 [2:0] $end
$var reg 32 V# insn [31:0] $end
$var reg 7 W# op [6:0] $end
$upscope $end
$scope function uses_rs2 $end
$var reg 3 X# f3 [2:0] $end
$var reg 32 Y# insn [31:0] $end
$var reg 7 Z# op [6:0] $end
$upscope $end
$scope module u_alu $end
$var wire 32 [# a [31:0] $end
$var wire 5 \# alu_ctrl [4:0] $end
$var wire 32 ]# b [31:0] $end
$var wire 32 ^# sa [31:0] $end
$var wire 32 _# sb [31:0] $end
$var wire 1 I" zero $end
$var wire 64 `# mul_uu [63:0] $end
$var wire 64 a# mul_su [63:0] $end
$var wire 64 b# mul_ss [63:0] $end
$var wire 64 c# mac_full [63:0] $end
$var wire 32 d# acc [31:0] $end
$var reg 32 e# result [31:0] $end
$upscope $end
$scope module u_ctrl $end
$var wire 3 f# funct3 [2:0] $end
$var wire 7 g# funct7 [6:0] $end
$var wire 1 h# is_m_ext $end
$var wire 7 i# opcode [6:0] $end
$var parameter 7 j# OP_AUIPC $end
$var parameter 7 k# OP_BRANCH $end
$var parameter 7 l# OP_CUSTOM $end
$var parameter 7 m# OP_I_ALU $end
$var parameter 7 n# OP_JAL $end
$var parameter 7 o# OP_JALR $end
$var parameter 7 p# OP_LOAD $end
$var parameter 7 q# OP_LUI $end
$var parameter 7 r# OP_R $end
$var parameter 7 s# OP_STORE $end
$var reg 5 t# alu_ctrl [4:0] $end
$var reg 2 u# alu_op [1:0] $end
$var reg 1 g" alu_src $end
$var reg 1 f" auipc $end
$var reg 1 e" branch $end
$var reg 1 a" jalr $end
$var reg 1 `" jump $end
$var reg 1 _" lui $end
$var reg 1 ^" mac_clr $end
$var reg 1 ]" mac_en $end
$var reg 1 \" mem_read $end
$var reg 1 [" mem_signed $end
$var reg 2 v# mem_size [1:0] $end
$var reg 1 Y" mem_to_reg $end
$var reg 1 X" mem_write $end
$var reg 1 Q" reg_write $end
$upscope $end
$scope module u_immgen $end
$var wire 32 w# instr [31:0] $end
$var wire 7 x# opcode [6:0] $end
$var parameter 7 y# OP_AUIPC $end
$var parameter 7 z# OP_BRANCH $end
$var parameter 7 {# OP_I_ALU $end
$var parameter 7 |# OP_JAL $end
$var parameter 7 }# OP_JALR $end
$var parameter 7 ~# OP_LOAD $end
$var parameter 7 !$ OP_LUI $end
$var parameter 7 "$ OP_STORE $end
$var reg 32 #$ imm_out [31:0] $end
$upscope $end
$scope module u_mac $end
$var wire 1 # clk $end
$var wire 1 9# mac_clr $end
$var wire 1 :# mac_en $end
$var wire 32 $$ mac_in [31:0] $end
$var wire 1 $ rst $end
$var reg 32 %$ acc [31:0] $end
$upscope $end
$scope module u_pc $end
$var wire 1 # clk $end
$var wire 32 &$ pc_next [31:0] $end
$var wire 1 $ rst $end
$var reg 32 '$ pc_out [31:0] $end
$upscope $end
$scope module u_rf $end
$var wire 1 # clk $end
$var wire 5 ($ rd [4:0] $end
$var wire 5 )$ rs1 [4:0] $end
$var wire 5 *$ rs2 [4:0] $end
$var wire 32 +$ wd [31:0] $end
$var wire 1 T# we $end
$var wire 32 ,$ rd2 [31:0] $end
$var wire 32 -$ rd1 [31:0] $end
$var integer 32 .$ i [31:0] $end
$upscope $end
$upscope $end
$scope module dmem $end
$var wire 32 /$ addr [31:0] $end
$var wire 1 # clk $end
$var wire 1 0$ mem_signed $end
$var wire 2 1$ mem_size [1:0] $end
$var wire 1 2$ re $end
$var wire 32 3$ wd [31:0] $end
$var wire 1 4$ we $end
$var reg 32 5$ rd [31:0] $end
$var integer 32 6$ i [31:0] $end
$upscope $end
$scope module imem $end
$var wire 32 7$ addr [31:0] $end
$var wire 32 8$ instr [31:0] $end
$var integer 32 9$ i [31:0] $end
$upscope $end
$upscope $end
$upscope $end
$enddefinitions $end
$comment Show the parameter values. $end
$dumpall
b100011 "$
b110111 !$
b11 ~#
b1100111 }#
b1101111 |#
b10011 {#
b1100011 z#
b10111 y#
b100011 s#
b110011 r#
b110111 q#
b11 p#
b1100111 o#
b1101111 n#
b10011 m#
b1011 l#
b1100011 k#
b10111 j#
b100011 ~"
b110011 }"
b110111 |"
b11 {"
b1100111 z"
b1101111 y"
b10011 x"
b1011 w"
b1100011 v"
b10111 u"
b10011 t"
b111 l
b110 k
b101 j
b100 i
b11 h
b10 g
b1 f
b0 e
$end
#0
$dumpvars
b100000000 9$
b101000010110111 8$
b0 7$
b10000000000 6$
b0 5$
04$
b0 3$
02$
b10 1$
10$
b0 /$
b100000 .$
b0 -$
b0 ,$
b0 +$
b0 *$
b0 )$
b0 ($
b0 '$
b100 &$
b0 %$
b0 $$
b0 #$
b10011 x#
b10011 w#
b10 v#
b10 u#
b0 t#
b10011 i#
0h#
b0 g#
b0 f#
b0 e#
b0 d#
b0 c#
b0 b#
b0 a#
b0 `#
b0 _#
b0 ^#
b0 ]#
b0 \#
b0 [#
b10011 Z#
b10011 Y#
b0 X#
b10011 W#
b10011 V#
b0 U#
0T#
b0 S#
b0 R#
0Q#
b0 P#
0O#
0N#
0M#
b0 L#
b0 K#
b0 J#
b0 I#
b10011 H#
b0 G#
b0 F#
0E#
b0 D#
b0 C#
b0 B#
b0 A#
b0 @#
0?#
0>#
b10 =#
0<#
0;#
0:#
09#
08#
07#
06#
b0 5#
b0 4#
03#
02#
01#
b0 0#
b0 /#
b0 .#
b0 -#
0,#
b0 +#
b0 *#
0)#
b10 (#
0'#
0&#
0%#
0$#
b0 ##
b0 "#
0!#
b0 s"
b0 r"
b0 q"
b0 p"
b0 o"
b0 n"
b0 m"
b0 l"
b0 k"
b0 j"
b0 i"
b10 h"
1g"
0f"
0e"
b0 d"
b0 c"
b0 b"
0a"
0`"
0_"
0^"
0]"
0\"
1["
b10 Z"
0Y"
0X"
b10011 W"
b0 V"
b0 U"
b0 T"
b0 S"
b0 R"
1Q"
b0 P"
b0 O"
b101000010110111 N"
b100 M"
b0 L"
b100 K"
b0 J"
1I"
0H"
0G"
0F"
b0 E"
b101000010110111 D"
0C"
0B"
b0 A"
b0 @"
b0 ?"
b0 >"
b0 ="
b0 <"
b0 ;"
b0 :"
b0 9"
b0 8"
07"
06"
b0 5"
b0 4"
b0 3"
b0 2"
b0 1"
b0 0"
b0 /"
0."
b0 -"
b0 ,"
b0 +"
0*"
0)"
b0 ("
b0 '"
b0 &"
b0 %"
b0 $"
0#"
0""
b0 !"
b0 ~
b11011110101011011011111011101111 }
b0 |
0{
0z
0y
0x
b0 w
b0 v
b0 u
b0 t
b0 s
b0 r
b0 q
b0 p
b0 o
b0 n
b0 m
b0 d
b0 c
b0 b
bz a
b0 `
b0 _
0^
0]
bz \
b0 [
0Z
b0 Y
0X
b0 W
0V
b0 U
b0 T
0S
b0 R
0Q
b0 P
0O
b11011110101011011011111011101111 N
b0 M
1L
0K
0J
b0 I
0H
b0 G
0F
b0 E
0D
0C
0B
b0 A
0@
b0 ?
0>
b0 =
0<
0;
1:
19
08
07
16
15
04
b11011110101011011011111011101111 3
12
01
b0 0
b0 /
0.
b0 -
0,
bz +
b0 *
b101000010110111 )
b0 (
1'
0&
1%
1$
0#
bz "
z!
$end
#5000
1#
#10000
0#
#15000
1#
#20000
17
0#
0$
#25000
1_"
b0 h"
b0 u#
0g"
1Q"
b1000 M"
b1000 &$
b110111 W"
b110111 i#
b1 R"
b101 d"
b101 f#
b101 U#
b110111 W#
b101000010110111 V#
b101 X#
b110111 Z#
b101000010110111 Y#
b101000000000000 b"
b101000000000000 #$
b110111 x#
b100000100000000000100010011 D"
b100000100000000000100010011 )
b100000100000000000100010011 N"
b100000100000000000100010011 8$
1<#
11#
1E#
b101000010110111 H#
b101000010110111 w#
b100 J#
b1000 K"
b100 *
b100 E"
b100 7$
b100 L"
b100 '$
1#
#30000
0#
#35000
b1100 M"
b1100 &$
b10 h"
b10 u#
1g"
0_"
1Q"
1I"
b0 r"
b0 e#
b0 $$
b1000001010000000100011 D"
b1000001010000000100011 )
b1000001010000000100011 N"
b1000001010000000100011 8$
b10011 W"
b10011 i#
b10 R"
b0 d"
b0 f#
b1 O"
b1 *$
b10 c"
b10 g#
b0 U#
b10011 W#
b100000100000000000100010011 V#
b0 X#
b10011 Z#
b100000100000000000100010011 Y#
b1000001 b"
b1000001 #$
b10011 x#
b0 _#
b0 o"
b0 ]#
b101000000000000 l"
b101000000000000 A"
b1100 K"
b1000 *
b1000 E"
b1000 7$
b1000 L"
b1000 '$
b100000100000000000100010011 H#
b100000100000000000100010011 w#
b1000 J#
b100 I#
18#
01#
b101 4#
b1 B#
b101000000000000 n"
b101000000000000 5#
b100 A#
1'#
1,#
1#
#40000
0#
#45000
b101000000000000 j"
0I"
b1000001 r"
b1000001 e#
b1000001 $$
b101000000000000 m"
b1000001 _#
b1000001 o"
b1000001 ]#
1X"
b0 h"
b0 u#
1g"
0Q"
b0 i"
b0 t#
b10000 M"
b10000 &$
b10 /#
b1000000 A"
b1000101 l"
b100011 W"
b100011 i#
b0 R"
b10 d"
b10 f#
b1 P"
b1 )$
b10 O"
b10 *$
b0 c"
b0 g#
b10 U#
b100011 W#
b1000001010000000100011 V#
b10 X#
b100011 Z#
b1000001010000000100011 Y#
b0 b"
b0 #$
b100011 x#
b10011 D"
b10011 )
b10011 N"
b10011 8$
1G"
1T#
1&#
b1 +#
b101000000000000 ##
b100 *#
08#
11#
b0 4#
b10 B#
b1 G#
b1000001 5#
b1000 A#
b1000101 n"
b100 @#
b1000001010000000100011 H#
b1000001010000000100011 w#
b1100 J#
b1000 I#
b10000 K"
b1100 *
b1100 E"
b1100 7$
b1100 L"
b1100 '$
1#
#50000
0#
#55000
b101000000000000 ^#
b101000000000000 p"
b101000000000000 [#
b101000000000000 k"
b1000001 j"
b101000000000000 J"
b101000000000000 +$
b10100 M"
b10100 &$
b10 h"
b10 u#
1Q"
0X"
1g"
0I"
b101000000000000 r"
b101000000000000 e#
b101000000000000 $$
b1000001 m"
b10011 W"
b10011 i#
b0 d"
b0 f#
b0 P"
b0 )$
b0 O"
b0 *$
b0 U#
b10011 W#
b10011 V#
b0 X#
b10011 Z#
b10011 Y#
b10011 x#
b0 _#
b0 o"
b0 ]#
b101000000000000 A"
b1000 l"
b1 .#
b10 /#
b10100 K"
b10000 *
b10000 E"
b10000 7$
b10000 L"
b10000 '$
b10011 H#
b10011 w#
b10000 J#
b1100 I#
1?#
0E#
b10 4#
b0 B#
b10 G#
b1 F#
b0 5#
b1100 A#
b1000 n"
b1000 @#
0&#
b10 +#
b1000001 ##
b1000 *#
b101000000000000 P
b101000000000000 q
b101000000000000 %"
b101000000000000 E
b101000000000000 s
b101000000000000 ,"
b101000000000000 =
b101000000000000 u
b101000000000000 9"
b101000000000000 W
b101000000000000 _
b101000000000000 o
b101000000000000 -
b101000000000000 M
b101000000000000 |
b101000000000000 q"
b101000000000000 -#
b101000000000000 3$
b1000001 T
b1000001 p
b1000001 $"
b1000001 I
b1000001 r
b1000001 +"
b1000001 A
b1000001 t
b1000001 8"
b1000001 [
b1000001 `
b1000001 m
b1000001 0
b1000001 U
b1000001 !"
b1000001 ?"
b1000001 /$
b1000001 "#
1O#
b1 S#
b1 ($
b101000000000000 L#
b100 R#
1#
#60000
0#
#65000
1I"
b0 r"
b0 e#
b0 $$
b0 ^#
b0 p"
b0 [#
b0 A"
b1000001 J"
b1000001 +$
b0 k"
b101000000000000 m"
b0 j"
b11000 M"
b11000 &$
14$
b0 /#
b0 .#
b1100 l"
0O#
b10 S#
b10 ($
b1000001 L#
b1000 R#
b1000001 K#
1O
1D
1<
1V
1,
0,#
b0 +#
b0 ##
b1100 *#
b1000001 P
b1000001 q
b1000001 %"
b1000001 E
b1000001 s
b1000001 ,"
b1000001 =
b1000001 u
b1000001 9"
b1000001 W
b1000001 _
b1000001 o
b1000001 -
b1000001 M
b1000001 |
b1000001 q"
b1000001 -#
b1000001 3$
b101000000000000 T
b101000000000000 p
b101000000000000 $"
b101000000000000 I
b101000000000000 r
b101000000000000 +"
b101000000000000 A
b101000000000000 t
b101000000000000 8"
b101000000000000 [
b101000000000000 `
b101000000000000 m
b101000000000000 0
b101000000000000 U
b101000000000000 !"
b101000000000000 ?"
b101000000000000 /$
b101000000000000 "#
0?#
1E#
b0 4#
b0 G#
b0 F#
b10000 A#
b1100 n"
b1100 @#
b10100 J#
b10000 I#
b11000 K"
b10100 *
b10100 E"
b10100 7$
b10100 L"
b10100 '$
1#
#70000
0#
#75000
b101000000000000 J"
b101000000000000 +$
b11100 M"
b11100 &$
b0 m"
b10000 l"
04$
b11100 K"
b11000 *
b11000 E"
b11000 7$
b11000 L"
b11000 '$
b11000 J#
b10100 I#
b10100 A#
b10000 n"
b10000 @#
0O
0D
0<
0V
0,
1,#
b10000 *#
b0 P
b0 q
b0 %"
b0 E
b0 s
b0 ,"
b0 =
b0 u
b0 9"
b0 W
b0 _
b0 o
b0 -
b0 M
b0 |
b0 q"
b0 -#
b0 3$
b0 T
b0 p
b0 $"
b0 I
b0 r
b0 +"
b0 A
b0 t
b0 8"
b0 [
b0 `
b0 m
b0 0
b0 U
b0 !"
b0 ?"
b0 /$
b0 "#
0G"
0T#
b0 S#
b0 ($
b0 L#
b1100 R#
b101000000000000 K#
1#
#80000
0#
#85000
b0 J"
b0 +$
b100000 M"
b100000 &$
b10100 l"
1G"
1T#
b10000 R#
b0 K#
b10100 *#
b11000 A#
b10100 n"
b10100 @#
b11100 J#
b11000 I#
b100000 K"
b11100 *
b11100 E"
b11100 7$
b11100 L"
b11100 '$
1#
#90000
0#
#95000
b100100 M"
b100100 &$
b11000 l"
b100100 K"
b100000 *
b100000 E"
b100000 7$
b100000 L"
b100000 '$
b100000 J#
b11100 I#
b11100 A#
b11000 n"
b11000 @#
b11000 *#
b10100 R#
1#
#100000
0#
#105000
b101000 M"
b101000 &$
b11100 l"
b11000 R#
b11100 *#
b100000 A#
b11100 n"
b11100 @#
b100100 J#
b100000 I#
b101000 K"
b100100 *
b100100 E"
b100100 7$
b100100 L"
b100100 '$
1#
#110000
0#
#115000
b101100 M"
b101100 &$
b100000 l"
b101100 K"
b101000 *
b101000 E"
b101000 7$
b101000 L"
b101000 '$
b101000 J#
b100100 I#
b100100 A#
b100000 n"
b100000 @#
b100000 *#
b11100 R#
1#
#120000
0#
#125000
b110000 M"
b110000 &$
b100100 l"
b100000 R#
b100100 *#
b101000 A#
b100100 n"
b100100 @#
b101100 J#
b101000 I#
b110000 K"
b101100 *
b101100 E"
b101100 7$
b101100 L"
b101100 '$
1#
#130000
0#
#135000
b110100 M"
b110100 &$
b101000 l"
b110100 K"
b110000 *
b110000 E"
b110000 7$
b110000 L"
b110000 '$
b110000 J#
b101100 I#
b101100 A#
b101000 n"
b101000 @#
b101000 *#
b100100 R#
1#
#140000
0#
#145000
b111000 M"
b111000 &$
b101100 l"
b101000 R#
b101100 *#
b110000 A#
b101100 n"
b101100 @#
b110100 J#
b110000 I#
b111000 K"
b110100 *
b110100 E"
b110100 7$
b110100 L"
b110100 '$
1#
#150000
0#
#155000
b111100 M"
b111100 &$
b110000 l"
b111100 K"
b111000 *
b111000 E"
b111000 7$
b111000 L"
b111000 '$
b111000 J#
b110100 I#
b110100 A#
b110000 n"
b110000 @#
b110000 *#
b101100 R#
1#
#160000
0#
#165000
b1000000 M"
b1000000 &$
b110100 l"
b110000 R#
b110100 *#
b111000 A#
b110100 n"
b110100 @#
b111100 J#
b111000 I#
b1000000 K"
b111100 *
b111100 E"
b111100 7$
b111100 L"
b111100 '$
1#
#170000
0#
#175000
b1000100 M"
b1000100 &$
b111000 l"
b1000100 K"
b1000000 *
b1000000 E"
b1000000 7$
b1000000 L"
b1000000 '$
b1000000 J#
b111100 I#
b111100 A#
b111000 n"
b111000 @#
b111000 *#
b110100 R#
1#
#180000
0#
#185000
b1001000 M"
b1001000 &$
b111100 l"
b111000 R#
b111100 *#
b1000000 A#
b111100 n"
b111100 @#
b1000100 J#
b1000000 I#
b1001000 K"
b1000100 *
b1000100 E"
b1000100 7$
b1000100 L"
b1000100 '$
1#
#190000
0#
#195000
b1001100 M"
b1001100 &$
b1000000 l"
b1001100 K"
b1001000 *
b1001000 E"
b1001000 7$
b1001000 L"
b1001000 '$
b1001000 J#
b1000100 I#
b1000100 A#
b1000000 n"
b1000000 @#
b1000000 *#
b111100 R#
1#
#200000
0#
#205000
b1010000 M"
b1010000 &$
b1000100 l"
b1000000 R#
b1000100 *#
b1001000 A#
b1000100 n"
b1000100 @#
b1001100 J#
b1001000 I#
b1010000 K"
b1001100 *
b1001100 E"
b1001100 7$
b1001100 L"
b1001100 '$
1#
#210000
0#
#215000
b1010100 M"
b1010100 &$
b1001000 l"
b1010100 K"
b1010000 *
b1010000 E"
b1010000 7$
b1010000 L"
b1010000 '$
b1010000 J#
b1001100 I#
b1001100 A#
b1001000 n"
b1001000 @#
b1001000 *#
b1000100 R#
1#
#220000
0#
